{
  "$schema": "https://universis.gitlab.io/ngx-tables/schemas/v1/schema.json",
  "title": "Active Students",
  "model": "Students",
  "searchExpression":"indexof(studentIdentifier, '${text}') ge 0 or indexof(person/familyName, '${text}') ge 0 or indexof(person/givenName, '${text}') ge 0 or indexof(user/name, '${text}') ge 0 or indexof(studyProgram/name, '${text}') ge 0 or indexof(studentStatus/name, '${text}') ge 0",
  "selectable": true,
  "multipleSelect": true,
  "columns": [
    {
      "name":"studyProgram",
      "property": "studyProgramId",
      "hidden": true
    },
    {
      "name":"studyProgramSpecialty",
      "property": "studyProgramSpecialtyId",
      "hidden": true,
      "virtual": true
    },
    {
      "name":"studentIdentifier",
      "property": "studentIdentifier",
      "title":"Student identifier"
    },
    {
      "name":"person/familyName",
      "property": "familyName",
      "title":"Name",
      "formatter": "TemplateFormatter",
      "formatString": "${familyName} ${givenName}"
    },
    {
      "name":"person/givenName",
      "property": "givenName",
      "title":"Given Name",
      "hidden": true
    },
    {
      "name":"studyProgram/abbreviation",
      "property": "studyProgram",
      "title":"Study program"
    },
    {
      "name":"semester",
      "property": "semester",
      "title":"Semester"
    },
    {
      "name":"inscriptionYear/name",
      "property": "inscriptionYear",
      "title":"Inscription year"
    },
    {
      "name":"inscriptionPeriod/name",
      "property": "inscriptionPeriod",
      "title":"Inscription period"
    },
    {
      "name": "id",
      "formatter": "ButtonFormatter",
      "virtual": true,
      "sortable": false,
      "className": "text-center",
      "formatOptions": {
        "buttonContent": "<i class=\"fas fa-edit text-indigo\"></i>",
        "buttonClass": "btn btn-default",
        "commands": [
          { "outlets":
          {
            "modal":["${id}", "edit"]
          }
          }
        ],
        "navigationExtras": {
          "replaceUrl": true,
          "skipLocationChange": true
        }
      }
    },
    {
      "name": "id",
      "formatter": "ButtonFormatter",
      "virtual": true,
      "sortable": false,
      "className": "text-center",
      "formatOptions": {
        "buttonContent": "<i class=\"fas fa-trash text-danger\"></i>",
        "buttonClass": "btn btn-default",
        "commands": [
          "${id}",
          "delete"
        ],
        "navigationExtras": {
          "replaceUrl": true,
          "skipLocationChange": true
        }
      }
    }
  ],
  "criteria": [
    {
      "name": "studentIdentifier",
      "filter": "(studentIdentifier eq ${value})",
      "type": "text"
    },
    {
      "name": "studentName",
      "filter": "(indexof(person/familyName, '${value}') ge 0 or indexof(person/givenName, '${value}') ge 0)",
      "type": "text"
    },
    {
      "name": "username",
      "filter": "(indexof(user/name, '${value}') ge 0)",
      "type": "text"
    },
    {
      "name": "studyProgram",
      "filter": "(studyProgram eq ${value})",
      "type": "text"
    },
    {
      "name": "inscriptionMode",
      "filter": "(inscriptionMode/id eq '${value}')",
      "type": "text"
    },
    {
      "name": "inscriptionYear",
      "filter": "(inscriptionYear/id eq '${value}')",
      "type": "text"
    },
    {
      "name": "inscriptionPeriod",
      "filter": "(inscriptionPeriod/id eq '${value}')",
      "type": "text"
    },
    {
      "name": "semester",
      "filter": "(semester eq '${value}')",
      "type": "text"
    }
  ],
  "searches": [

  ],
  "defaults":{
    "filter": "studentStatus/alternateName eq 'active' and department eq 418"
  },
  "paths" : [

  ]
}
